--Wep Exploit Configuration--
secret key                    : fa d2 15 38 df eb a7 ab 91 25 60 af 21
packets per key byte          : 256
srand seed                    : none
iv generator                  : counter
logging level                 : verbose


>> Starting to recover WEP key...
--- Beginning packet collection phase. (min packets per key byte: 256, max packets per key byte: 512)
++++ Checked 10000 more packets. (collected this phase: 0,total packets: 10000)
++++ Checked 10000 more packets. (collected this phase: 0,total packets: 20000)
++++ Checked 10000 more packets. (collected this phase: 0,total packets: 30000)
++++ Checked 10000 more packets. (collected this phase: 0,total packets: 40000)
++++ Checked 10000 more packets. (collected this phase: 0,total packets: 50000)
++++ Checked 10000 more packets. (collected this phase: 0,total packets: 60000)
++++ Checked 10000 more packets. (collected this phase: 0,total packets: 70000)
++++ Checked 10000 more packets. (collected this phase: 0,total packets: 80000)
++++ Checked 10000 more packets. (collected this phase: 0,total packets: 90000)
++++ Checked 10000 more packets. (collected this phase: 0,total packets: 100000)
++++ Checked 10000 more packets. (collected this phase: 0,total packets: 110000)
++++ Checked 10000 more packets. (collected this phase: 0,total packets: 120000)
++++ Checked 10000 more packets. (collected this phase: 0,total packets: 130000)
++++ Checked 10000 more packets. (collected this phase: 0,total packets: 140000)
++++ Checked 10000 more packets. (collected this phase: 0,total packets: 150000)
++++ Checked 10000 more packets. (collected this phase: 0,total packets: 160000)
++++ Checked 10000 more packets. (collected this phase: 0,total packets: 170000)
++++ Checked 10000 more packets. (collected this phase: 0,total packets: 180000)
++++ Checked 10000 more packets. (collected this phase: 0,total packets: 190000)
++++ Checked 10000 more packets. (collected this phase: 0,total packets: 200000)
++++ Checked 10000 more packets. (collected this phase: 0,total packets: 210000)
++++ Checked 10000 more packets. (collected this phase: 0,total packets: 220000)
++++ Checked 10000 more packets. (collected this phase: 0,total packets: 230000)
++++ Checked 10000 more packets. (collected this phase: 0,total packets: 240000)
++++ Checked 10000 more packets. (collected this phase: 0,total packets: 250000)
++++ Checked 10000 more packets. (collected this phase: 0,total packets: 260000)
++++ Checked 10000 more packets. (collected this phase: 256,total packets: 270000)
++++ Checked 10000 more packets. (collected this phase: 256,total packets: 280000)
++++ Checked 10000 more packets. (collected this phase: 256,total packets: 290000)
++++ Checked 10000 more packets. (collected this phase: 256,total packets: 300000)
++++ Checked 10000 more packets. (collected this phase: 256,total packets: 310000)
++++ Checked 10000 more packets. (collected this phase: 256,total packets: 320000)
++++ Checked 10000 more packets. (collected this phase: 512,total packets: 330000)
++++ Checked 10000 more packets. (collected this phase: 512,total packets: 340000)
++++ Checked 10000 more packets. (collected this phase: 512,total packets: 350000)
++++ Checked 10000 more packets. (collected this phase: 512,total packets: 360000)
++++ Checked 10000 more packets. (collected this phase: 512,total packets: 370000)
++++ Checked 10000 more packets. (collected this phase: 512,total packets: 380000)
++++ Checked 10000 more packets. (collected this phase: 512,total packets: 390000)
++++ Checked 10000 more packets. (collected this phase: 768,total packets: 400000)
++++ Checked 10000 more packets. (collected this phase: 768,total packets: 410000)
++++ Checked 10000 more packets. (collected this phase: 768,total packets: 420000)
++++ Checked 10000 more packets. (collected this phase: 768,total packets: 430000)
++++ Checked 10000 more packets. (collected this phase: 768,total packets: 440000)
++++ Checked 10000 more packets. (collected this phase: 768,total packets: 450000)
++++ Checked 10000 more packets. (collected this phase: 1024,total packets: 460000)
++++ Checked 10000 more packets. (collected this phase: 1024,total packets: 470000)
++++ Checked 10000 more packets. (collected this phase: 1024,total packets: 480000)
++++ Checked 10000 more packets. (collected this phase: 1024,total packets: 490000)
++++ Checked 10000 more packets. (collected this phase: 1024,total packets: 500000)
++++ Checked 10000 more packets. (collected this phase: 1024,total packets: 510000)
++++ Checked 10000 more packets. (collected this phase: 1024,total packets: 520000)
++++ Checked 10000 more packets. (collected this phase: 1280,total packets: 530000)
++++ Checked 10000 more packets. (collected this phase: 1280,total packets: 540000)
++++ Checked 10000 more packets. (collected this phase: 1280,total packets: 550000)
++++ Checked 10000 more packets. (collected this phase: 1280,total packets: 560000)
++++ Checked 10000 more packets. (collected this phase: 1280,total packets: 570000)
++++ Checked 10000 more packets. (collected this phase: 1280,total packets: 580000)
++++ Checked 10000 more packets. (collected this phase: 1536,total packets: 590000)
++++ Checked 10000 more packets. (collected this phase: 1536,total packets: 600000)
++++ Checked 10000 more packets. (collected this phase: 1536,total packets: 610000)
++++ Checked 10000 more packets. (collected this phase: 1536,total packets: 620000)
++++ Checked 10000 more packets. (collected this phase: 1536,total packets: 630000)
++++ Checked 10000 more packets. (collected this phase: 1536,total packets: 640000)
++++ Checked 10000 more packets. (collected this phase: 1536,total packets: 650000)
++++ Checked 10000 more packets. (collected this phase: 1792,total packets: 660000)
++++ Checked 10000 more packets. (collected this phase: 1792,total packets: 670000)
++++ Checked 10000 more packets. (collected this phase: 1792,total packets: 680000)
++++ Checked 10000 more packets. (collected this phase: 1792,total packets: 690000)
++++ Checked 10000 more packets. (collected this phase: 1792,total packets: 700000)
++++ Checked 10000 more packets. (collected this phase: 1792,total packets: 710000)
++++ Checked 10000 more packets. (collected this phase: 1792,total packets: 720000)
++++ Checked 10000 more packets. (collected this phase: 2048,total packets: 730000)
++++ Checked 10000 more packets. (collected this phase: 2048,total packets: 740000)
++++ Checked 10000 more packets. (collected this phase: 2048,total packets: 750000)
++++ Checked 10000 more packets. (collected this phase: 2048,total packets: 760000)
++++ Checked 10000 more packets. (collected this phase: 2048,total packets: 770000)
++++ Checked 10000 more packets. (collected this phase: 2048,total packets: 780000)
++++ Checked 10000 more packets. (collected this phase: 2304,total packets: 790000)
++++ Checked 10000 more packets. (collected this phase: 2304,total packets: 800000)
++++ Checked 10000 more packets. (collected this phase: 2304,total packets: 810000)
++++ Checked 10000 more packets. (collected this phase: 2304,total packets: 820000)
++++ Checked 10000 more packets. (collected this phase: 2304,total packets: 830000)
++++ Checked 10000 more packets. (collected this phase: 2304,total packets: 840000)
++++ Checked 10000 more packets. (collected this phase: 2304,total packets: 850000)
++++ Checked 10000 more packets. (collected this phase: 2560,total packets: 860000)
++++ Checked 10000 more packets. (collected this phase: 2560,total packets: 870000)
++++ Checked 10000 more packets. (collected this phase: 2560,total packets: 880000)
++++ Checked 10000 more packets. (collected this phase: 2560,total packets: 890000)
++++ Checked 10000 more packets. (collected this phase: 2560,total packets: 900000)
++++ Checked 10000 more packets. (collected this phase: 2560,total packets: 910000)
++++ Checked 10000 more packets. (collected this phase: 2816,total packets: 920000)
++++ Checked 10000 more packets. (collected this phase: 2816,total packets: 930000)
++++ Checked 10000 more packets. (collected this phase: 2816,total packets: 940000)
++++ Checked 10000 more packets. (collected this phase: 2816,total packets: 950000)
++++ Checked 10000 more packets. (collected this phase: 2816,total packets: 960000)
++++ Checked 10000 more packets. (collected this phase: 2816,total packets: 970000)
++++ Checked 10000 more packets. (collected this phase: 2816,total packets: 980000)
++++ Checked 10000 more packets. (collected this phase: 3072,total packets: 990000)
++++ Checked 10000 more packets. (collected this phase: 3072,total packets: 1000000)
++++ Checked 10000 more packets. (collected this phase: 3072,total packets: 1010000)
++++ Checked 10000 more packets. (collected this phase: 3072,total packets: 1020000)
++++ Checked 10000 more packets. (collected this phase: 3072,total packets: 1030000)
++++ Checked 10000 more packets. (collected this phase: 3072,total packets: 1040000)
--- Collected 3328 packets out of 1048575 examined. (0.32% capture rate)
--- Beginning analysis phase.
--- Finished analysis of index 0. Key byte is 0xfa. (failed IVs: 2, successful IVs: 254, success percentage: 99.22%)
--- Finished analysis of index 1. Key byte is 0xd2. (failed IVs: 3, successful IVs: 253, success percentage: 98.83%)
--- Finished analysis of index 2. Key byte is 0x15. (failed IVs: 5, successful IVs: 251, success percentage: 98.05%)
--- Finished analysis of index 3. Key byte is 0x38. (failed IVs: 7, successful IVs: 249, success percentage: 97.27%)
--- Finished analysis of index 4. Key byte is 0xdf. (failed IVs: 9, successful IVs: 247, success percentage: 96.48%)
--- Finished analysis of index 5. Key byte is 0xeb. (failed IVs: 11, successful IVs: 245, success percentage: 95.70%)
--- Finished analysis of index 6. Key byte is 0xa7. (failed IVs: 13, successful IVs: 243, success percentage: 94.92%)
--- Finished analysis of index 7. Key byte is 0xab. (failed IVs: 15, successful IVs: 241, success percentage: 94.14%)
--- Finished analysis of index 8. Key byte is 0x91. (failed IVs: 17, successful IVs: 239, success percentage: 93.36%)
--- Finished analysis of index 9. Key byte is 0x25. (failed IVs: 18, successful IVs: 238, success percentage: 92.97%)
--- Finished analysis of index 10. Key byte is 0x60. (failed IVs: 20, successful IVs: 236, success percentage: 92.19%)
--- Finished analysis of index 11. Key byte is 0xaf. (failed IVs: 22, successful IVs: 234, success percentage: 91.41%)
--- Finished analysis of index 12. Key byte is 0x21. (failed IVs: 28, successful IVs: 228, success percentage: 89.06%)
--- Done guessing key.
>> Full key guess is fa d2 15 38 df eb a7 ab 91 25 60 af 21
>> Attempting to decrypt WEP packet with the guessed key...
>> Guessed key was correct!!


--Execution Summary--
recovered key                      : fa d2 15 38 df eb a7 ab 91 25 60 af 21
execution time                     : 10.340s
total packets                      : 1048575
total collected packets            : 3328
percentage collected of total      : 0.32%
total number of guesses            : 1
